EESchema Schematic File Version 2
LIBS:attiny841-ssu
LIBS:evusbasp-hdr
LIBS:ftdi232-hdr
LIBS:6n138
LIBS:power
LIBS:device
LIBS:transistors
LIBS:conn
LIBS:linear
LIBS:regul
LIBS:74xx
LIBS:cmos4000
LIBS:adc-dac
LIBS:memory
LIBS:xilinx
LIBS:microcontrollers
LIBS:dsp
LIBS:microchip
LIBS:analog_switches
LIBS:motorola
LIBS:texas
LIBS:intel
LIBS:audio
LIBS:interface
LIBS:digital-audio
LIBS:philips
LIBS:display
LIBS:cypress
LIBS:siliconi
LIBS:opto
LIBS:atmel
LIBS:contrib
LIBS:valves
LIBS:ccLFO841-cache
EELAYER 25 0
EELAYER END
$Descr USLetter 8500 11000 portrait
encoding utf-8
Sheet 1 1
Title "ccLFO"
Date "2018-07-30"
Rev "1"
Comp "./qusw"
Comment1 "ATtiny841"
Comment2 ""
Comment3 ""
Comment4 ""
$EndDescr
$Comp
L Crystal Y1
U 1 1 5B41A545
P 3850 3175
F 0 "Y1" H 3850 3325 50  0000 C CNN
F 1 "16Mhz" H 3850 3025 50  0000 C CNN
F 2 "Crystals:Crystal_HC49-U_Vertical" H 3850 3175 50  0001 C CNN
F 3 "" H 3850 3175 50  0000 C CNN
	1    3850 3175
	0    1    1    0   
$EndComp
$Comp
L ATTINY841-SSU IC1
U 1 1 5B41D3EA
P 5000 2875
F 0 "IC1" H 4150 3625 50  0000 C CNN
F 1 "ATTINY841-SSU" H 5700 2125 50  0000 C CNN
F 2 "SMD_Packages:SOIC-14_N" H 4450 3525 50  0000 C CIN
F 3 "" H 5000 2875 50  0000 C CNN
	1    5000 2875
	1    0    0    -1  
$EndComp
$Comp
L C C3
U 1 1 5B41D66E
P 3500 3325
F 0 "C3" H 3525 3425 50  0000 L CNN
F 1 "27pF" H 3525 3225 50  0000 L CNN
F 2 "Capacitors_ThroughHole:C_Rect_L4_W2.5_P2.5" H 3538 3175 50  0001 C CNN
F 3 "" H 3500 3325 50  0000 C CNN
	1    3500 3325
	0    1    1    0   
$EndComp
$Comp
L C C2
U 1 1 5B41D701
P 3500 3025
F 0 "C2" H 3525 3125 50  0000 L CNN
F 1 "27pF" H 3525 2925 50  0000 L CNN
F 2 "Capacitors_ThroughHole:C_Rect_L4_W2.5_P2.5" H 3538 2875 50  0001 C CNN
F 3 "" H 3500 3025 50  0000 C CNN
	1    3500 3025
	0    1    1    0   
$EndComp
Text Label 3750 2275 0    60   ~ 0
VCC
Text Label 3750 3475 0    60   ~ 0
GND
$Comp
L C C1
U 1 1 5B41EAA2
P 3350 2575
F 0 "C1" H 3375 2675 50  0000 L CNN
F 1 "100nF" H 3375 2475 50  0000 L CNN
F 2 "Capacitors_ThroughHole:C_Rect_L4_W2.5_P2.5" H 3388 2425 50  0001 C CNN
F 3 "" H 3350 2575 50  0000 C CNN
	1    3350 2575
	-1   0    0    -1  
$EndComp
$Comp
L GND #PWR01
U 1 1 5B41F36E
P 3350 3575
F 0 "#PWR01" H 3350 3325 50  0001 C CNN
F 1 "GND" H 3350 3425 50  0000 C CNN
F 2 "" H 3350 3575 50  0000 C CNN
F 3 "" H 3350 3575 50  0000 C CNN
	1    3350 3575
	1    0    0    -1  
$EndComp
Text Label 6050 2725 0    60   ~ 0
MISO
Text Label 6050 2825 0    60   ~ 0
MOSI
Text Label 6050 2625 0    60   ~ 0
SCK
Text Label 6050 2425 0    60   ~ 0
RX0
$Comp
L EvUSBasp P3
U 1 1 5B4238B5
P 7350 3675
F 0 "P3" H 7350 3925 50  0000 C CNN
F 1 "EvUSBasp" V 7450 3675 50  0000 C CNN
F 2 "mod:evusbasp-hdr" H 7350 3675 50  0001 C CNN
F 3 "" H 7350 3675 50  0000 C CNN
	1    7350 3675
	1    0    0    -1  
$EndComp
Text Label 7150 3525 2    60   ~ 0
VCC
Text Label 7150 4025 2    60   ~ 0
GND
Text Label 7150 3625 2    60   ~ 0
MOSI
Text Label 7150 3925 2    60   ~ 0
MISO
$Comp
L FTDI232 P2
U 1 1 5B423BA5
P 7350 2775
F 0 "P2" H 7350 3025 50  0000 C CNN
F 1 "FTDI232" V 7450 2775 50  0000 C CNN
F 2 "mod:ftdi232-hdr" H 7350 2775 50  0001 C CNN
F 3 "" H 7350 2775 50  0000 C CNN
	1    7350 2775
	1    0    0    -1  
$EndComp
NoConn ~ 7150 2625
Text Label 7150 2925 2    60   ~ 0
GND
NoConn ~ 7150 2825
Text Label 7150 2725 2    60   ~ 0
RX
Text Notes 6250 2725 0    60   ~ 0
/TX1
$Comp
L DIN_5 P1
U 1 1 5B424577
P 6950 1425
F 0 "P1" H 6950 1425 50  0000 C CNN
F 1 "DIN_5" H 6950 1275 50  0000 C CNN
F 2 "mod:midi-hdr" H 6950 1425 50  0001 C CNN
F 3 "" H 6950 1425 50  0000 C CNN
	1    6950 1425
	-1   0    0    1   
$EndComp
$Comp
L GND #PWR02
U 1 1 5B4246EE
P 6950 1825
F 0 "#PWR02" H 6950 1575 50  0001 C CNN
F 1 "GND" H 6950 1675 50  0000 C CNN
F 2 "" H 6950 1825 50  0000 C CNN
F 3 "" H 6950 1825 50  0000 C CNN
	1    6950 1825
	1    0    0    -1  
$EndComp
NoConn ~ 7350 1425
NoConn ~ 6550 1425
$Comp
L R R2
U 1 1 5B42474A
P 7500 1625
F 0 "R2" V 7580 1625 50  0000 C CNN
F 1 "220" V 7500 1625 50  0000 C CNN
F 2 "Resistors_ThroughHole:Resistor_Horizontal_RM10mm" V 7430 1625 50  0001 C CNN
F 3 "" H 7500 1625 50  0000 C CNN
	1    7500 1625
	0    -1   -1   0   
$EndComp
$Comp
L VCC #PWR03
U 1 1 5B424808
P 3350 2275
F 0 "#PWR03" H 3350 2125 50  0001 C CNN
F 1 "VCC" H 3350 2425 50  0000 C CNN
F 2 "" H 3350 2275 50  0000 C CNN
F 3 "" H 3350 2275 50  0000 C CNN
	1    3350 2275
	1    0    0    -1  
$EndComp
$Comp
L VCC #PWR04
U 1 1 5B42486B
P 7650 1325
F 0 "#PWR04" H 7650 1175 50  0001 C CNN
F 1 "VCC" H 7650 1475 50  0000 C CNN
F 2 "" H 7650 1325 50  0000 C CNN
F 3 "" H 7650 1325 50  0000 C CNN
	1    7650 1325
	1    0    0    -1  
$EndComp
$Comp
L R R1
U 1 1 5B424ACD
P 6400 1625
F 0 "R1" V 6480 1625 50  0000 C CNN
F 1 "220" V 6400 1625 50  0000 C CNN
F 2 "Resistors_ThroughHole:Resistor_Horizontal_RM10mm" V 6330 1625 50  0001 C CNN
F 3 "" H 6400 1625 50  0000 C CNN
	1    6400 1625
	0    -1   -1   0   
$EndComp
Text Notes 6200 2025 1    60   ~ 0
TX0
Text Notes 7150 1125 2    60   ~ 0
MIDI OUT
Text Notes 7400 2475 2    60   ~ 0
CONSOLE
Text Notes 7500 3375 2    60   ~ 0
PROGRAMMER
Text Label 7150 3725 2    60   ~ 0
RST
Text Label 6050 3125 0    60   ~ 0
RST
Wire Wire Line
	3650 3025 3950 3025
Connection ~ 3850 3025
Wire Wire Line
	3650 3325 3950 3325
Connection ~ 3850 3325
Wire Wire Line
	3350 2725 3350 3575
Wire Wire Line
	3050 3475 3950 3475
Connection ~ 3350 3325
Wire Wire Line
	3000 2275 3950 2275
Wire Wire Line
	3350 2275 3350 2425
Connection ~ 3350 3025
Connection ~ 3350 3475
Wire Wire Line
	6050 2725 7150 2725
Wire Wire Line
	7650 1325 7650 1625
Wire Wire Line
	6200 1625 6200 2325
Wire Wire Line
	6200 2325 6050 2325
Wire Wire Line
	6200 1625 6250 1625
$Comp
L PWR_FLAG #FLG05
U 1 1 5B427543
P 3000 2275
F 0 "#FLG05" H 3000 2370 50  0001 C CNN
F 1 "PWR_FLAG" H 3000 2455 50  0000 C CNN
F 2 "" H 3000 2275 50  0000 C CNN
F 3 "" H 3000 2275 50  0000 C CNN
	1    3000 2275
	1    0    0    -1  
$EndComp
Connection ~ 3350 2275
$Comp
L PWR_FLAG #FLG06
U 1 1 5B42775A
P 3050 3475
F 0 "#FLG06" H 3050 3570 50  0001 C CNN
F 1 "PWR_FLAG" H 3050 3655 50  0000 C CNN
F 2 "" H 3050 3475 50  0000 C CNN
F 3 "" H 3050 3475 50  0000 C CNN
	1    3050 3475
	1    0    0    -1  
$EndComp
Text Label 7150 3825 2    60   ~ 0
SCK
Text Label 6050 2225 0    60   ~ 0
TMP
Text Label 6050 2525 0    60   ~ 0
SET
Text Label 6050 2925 0    60   ~ 0
AMP
Text Label 6050 3225 0    60   ~ 0
PB2
Text Notes 6225 2425 0    60   ~ 0
/
Text Notes 6250 2825 0    60   ~ 0
/
$Comp
L CONN_01X06 P5
U 1 1 5B428907
P 7350 4725
F 0 "P5" H 7350 5075 50  0000 C CNN
F 1 "CONN_01X06" V 7450 4725 50  0000 C CNN
F 2 "Connect:bornier6" H 7350 4725 50  0001 C CNN
F 3 "" H 7350 4725 50  0000 C CNN
	1    7350 4725
	1    0    0    -1  
$EndComp
Text Notes 7600 4325 2    60   ~ 0
PIN HEADER\n
Text Label 7150 4675 2    60   ~ 0
TMP
Text Label 7150 4575 2    60   ~ 0
SEL
Text Label 7150 4475 2    60   ~ 0
SET
Text Label 7150 4975 2    60   ~ 0
SW
Text Label 7150 4875 2    60   ~ 0
AMP
Text Label 7150 4775 2    60   ~ 0
PB2
Text Label 6300 2425 0    60   ~ 0
SEL
Wire Wire Line
	6050 2425 6300 2425
Text Label 6300 2825 0    60   ~ 0
SW
Wire Wire Line
	6050 2825 6300 2825
$EndSCHEMATC
